<?xml version="1.0" encoding="UTF-8" standalone="no"?>
<!-- Created with Inkscape (http://www.inkscape.org/) -->

<svg
   xmlns:dc="http://purl.org/dc/elements/1.1/"
   xmlns:cc="http://creativecommons.org/ns#"
   xmlns:rdf="http://www.w3.org/1999/02/22-rdf-syntax-ns#"
   xmlns:svg="http://www.w3.org/2000/svg"
   xmlns="http://www.w3.org/2000/svg"
   xmlns:sodipodi="http://sodipodi.sourceforge.net/DTD/sodipodi-0.dtd"
   xmlns:inkscape="http://www.inkscape.org/namespaces/inkscape"
   width="765"
   height="1260"
   id="svg2"
   version="1.1"
   inkscape:version="0.48.5 r10040"
   sodipodi:docname="Avtokon4.svg">
  <defs
     id="defs4" />
  <sodipodi:namedview
     id="base"
     pagecolor="#ffff5e"
     bordercolor="#666666"
     borderopacity="1.0"
     inkscape:pageopacity="0"
     inkscape:pageshadow="2"
     inkscape:zoom="1.0008085"
     inkscape:cx="123.67246"
     inkscape:cy="709.09035"
     inkscape:document-units="px"
     inkscape:current-layer="layer2"
     showgrid="false"
     inkscape:window-width="1280"
     inkscape:window-height="972"
     inkscape:window-x="-8"
     inkscape:window-y="-8"
     inkscape:window-maximized="1"
     showborder="false"
     borderlayer="false"
     inkscape:showpageshadow="false"
     showguides="false"
     inkscape:snap-grids="false"
     inkscape:snap-to-guides="true">
    <sodipodi:guide
       position="0,0"
       orientation="0,765"
       id="guide3003" />
    <sodipodi:guide
       position="765,0"
       orientation="-990,0"
       id="guide3005" />
    <sodipodi:guide
       position="765,990"
       orientation="0,-765"
       id="guide3007" />
    <sodipodi:guide
       position="0,990"
       orientation="990,0"
       id="guide3009" />
    <sodipodi:guide
       position="0,0"
       orientation="0,765"
       id="guide3011" />
    <sodipodi:guide
       position="765,0"
       orientation="-990,0"
       id="guide3013" />
    <sodipodi:guide
       position="765,990"
       orientation="0,-765"
       id="guide3015" />
    <sodipodi:guide
       position="0,990"
       orientation="990,0"
       id="guide3017" />
    <inkscape:grid
       type="xygrid"
       id="grid3015" />
  </sodipodi:namedview>
  <metadata
     id="metadata7">
    <rdf:RDF>
      <cc:Work
         rdf:about="">
        <dc:format>image/svg+xml</dc:format>
        <dc:type
           rdf:resource="http://purl.org/dc/dcmitype/StillImage" />
        <dc:title />
      </cc:Work>
    </rdf:RDF>
  </metadata>
  <g
     inkscape:label="Layer 1"
     inkscape:groupmode="layer"
     id="layer1"
     transform="translate(0,207.63758)"
     sodipodi:insensitive="true">
    <flowRoot
       xml:space="preserve"
       id="flowRoot3001"
       style="font-size:40px;font-style:normal;font-weight:normal;line-height:125%;letter-spacing:0px;word-spacing:0px;fill:#000000;fill-opacity:1;stroke:none;font-family:Sans"><flowRegion
         id="flowRegion3003"><rect
           id="rect3005"
           width="282.84271"
           height="426.28436"
           x="1012.1729"
           y="339.19449" /></flowRegion><flowPara
         id="flowPara3007" /></flowRoot>    <flowRoot
       xml:space="preserve"
       id="flowRoot2997"
       style="font-size:40px;font-style:normal;font-weight:normal;line-height:125%;letter-spacing:0px;word-spacing:0px;fill:#000000;fill-opacity:1;stroke:none;font-family:Sans"><flowRegion
         id="flowRegion2999"><rect
           id="rect3001"
           width="1525.3303"
           height="844.48755"
           x="-187.88837"
           y="-206.28787" /></flowRegion><flowPara
         id="flowPara3003" /></flowRoot>    <rect
       style="fill:#f2f2f2"
       id="Page"
       width="595"
       height="841"
       x="0"
       y="0" />
  </g>
  <g
     inkscape:groupmode="layer"
     id="layer2"
     inkscape:label="Слой"
     transform="translate(0,207.63758)">
    <text
       xml:space="preserve"
       style="font-size:12px;font-style:normal;font-variant:normal;font-weight:normal;font-stretch:normal;text-align:start;line-height:125%;letter-spacing:0px;word-spacing:0px;writing-mode:lr-tb;text-anchor:start;fill:#000000;fill-opacity:1;stroke:none;font-family:Times New Roman;-inkscape-font-specification:'Times New Roman,'"
       x="386.70956"
       y="66.080246"
       id="_HandCtrlResultText"
       sodipodi:linespacing="125%"
       inkscape:label="#text3003"
       transform="scale(0.97537795,1.0252436)"><tspan
         sodipodi:role="line"
         id="_Angle"
         x="386.70956"
         y="66.080246">Угол ввода:</tspan><tspan
         sodipodi:role="line"
         x="386.70956"
         y="81.080246"
         id="_Method">Метод:</tspan><tspan
         sodipodi:role="line"
         x="386.70956"
         y="96.080246"
         id="_Surface">Поверхность:</tspan><tspan
         sodipodi:role="line"
         x="386.70956"
         y="111.08025"
         id="_JointDistance">Расстояние от стыка:</tspan><tspan
         sodipodi:role="line"
         x="386.70956"
         y="126.08025"
         id="_Kd">Кд =</tspan><tspan
         sodipodi:role="line"
         x="386.70956"
         y="141.08025"
         id="_H">Н =</tspan><tspan
         sodipodi:role="line"
         x="386.70956"
         y="156.08025"
         id="_VRC">ВРЧ =</tspan><tspan
         sodipodi:role="line"
         x="386.70956"
         y="171.08025"
         id="_2TP">2ТП =</tspan><tspan
         sodipodi:role="line"
         x="386.70956"
         y="186.08025"
         id="_Ku">Ку =</tspan><tspan
         sodipodi:role="line"
         x="386.70956"
         y="201.08025"
         id="_ControlTime">Время контроля:</tspan></text>
    <rect
       style="fill:#808080"
       id="_HandImage"
       width="237.21577"
       height="172.60561"
       x="66.308006"
       y="53.006927"
       inkscape:label="#rect3011" />
    <text
       xml:space="preserve"
       style="font-size:12px;font-style:normal;font-variant:normal;font-weight:normal;font-stretch:normal;text-align:start;line-height:125%;letter-spacing:0px;word-spacing:0px;writing-mode:lr-tb;text-anchor:start;fill:#000000;fill-opacity:1;stroke:none;font-family:Arial;-inkscape-font-specification:Arial"
       x="28.436279"
       y="32.681427"
       id="text3060"
       sodipodi:linespacing="125%"><tspan
         sodipodi:role="line"
         id="tspan3062"
         x="28.436279"
         y="32.681427">2. Результаты контроля ручным ПЭП:</tspan></text>
    <text
       xml:space="preserve"
       style="font-size:12px;font-style:normal;font-variant:normal;font-weight:normal;font-stretch:normal;text-align:start;line-height:125%;letter-spacing:0px;word-spacing:0px;writing-mode:lr-tb;text-anchor:start;fill:#000000;fill-opacity:1;stroke:none;font-family:Times New Roman;-inkscape-font-specification:'Times New Roman,'"
       x="385.54489"
       y="253.97232"
       id="_HandCtrlResultText-1"
       sodipodi:linespacing="125%"
       inkscape:label="#text3003"
       transform="scale(0.97537795,1.0252436)"><tspan
         sodipodi:role="line"
         id="_Angle-7"
         x="385.54489"
         y="253.97232">Угол ввода:</tspan><tspan
         sodipodi:role="line"
         x="385.54489"
         y="268.97232"
         id="_Method-4">Метод:</tspan><tspan
         sodipodi:role="line"
         x="385.54489"
         y="283.97232"
         id="_Surface-0">Поверхность:</tspan><tspan
         sodipodi:role="line"
         x="385.54489"
         y="298.97232"
         id="_JointDistance-9">Расстояние от стыка:</tspan><tspan
         sodipodi:role="line"
         x="385.54489"
         y="313.97232"
         id="_Kd-4">Кд =</tspan><tspan
         sodipodi:role="line"
         x="385.54489"
         y="328.97232"
         id="_H-8">Н =</tspan><tspan
         sodipodi:role="line"
         x="385.54489"
         y="343.97232"
         id="_VRC-8">ВРЧ =</tspan><tspan
         sodipodi:role="line"
         x="385.54489"
         y="358.97232"
         id="_2TP-2">2ТП =</tspan><tspan
         sodipodi:role="line"
         x="385.54489"
         y="373.97232"
         id="_Ku-4">Ку =</tspan><tspan
         sodipodi:role="line"
         x="385.54489"
         y="388.97232"
         id="_ControlTime-5">Время контроля:</tspan></text>
    <rect
       style="fill:#808080"
       id="_HandImage-5"
       width="237.21577"
       height="172.60561"
       x="65.171982"
       y="245.64207"
       inkscape:label="#rect3011" />
    <text
       xml:space="preserve"
       style="font-size:12px;font-style:normal;font-variant:normal;font-weight:normal;font-stretch:normal;text-align:start;line-height:125%;letter-spacing:0px;word-spacing:0px;writing-mode:lr-tb;text-anchor:start;fill:#000000;fill-opacity:1;stroke:none;font-family:Times New Roman;-inkscape-font-specification:'Times New Roman,'"
       x="384.52045"
       y="439.14444"
       id="_HandCtrlResultText-17"
       sodipodi:linespacing="125%"
       inkscape:label="#text3003"
       transform="scale(0.97537795,1.0252436)"><tspan
         sodipodi:role="line"
         id="_Angle-1"
         x="384.52045"
         y="439.14444">Угол ввода:</tspan><tspan
         sodipodi:role="line"
         x="384.52045"
         y="454.14444"
         id="_Method-1">Метод:</tspan><tspan
         sodipodi:role="line"
         x="384.52045"
         y="469.14444"
         id="_Surface-5">Поверхность:</tspan><tspan
         sodipodi:role="line"
         x="384.52045"
         y="484.14444"
         id="_JointDistance-2">Расстояние от стыка:</tspan><tspan
         sodipodi:role="line"
         x="384.52045"
         y="499.14444"
         id="_Kd-7">Кд =</tspan><tspan
         sodipodi:role="line"
         x="384.52045"
         y="514.14441"
         id="_H-6">Н =</tspan><tspan
         sodipodi:role="line"
         x="384.52045"
         y="529.14447"
         id="_VRC-1">ВРЧ =</tspan><tspan
         sodipodi:role="line"
         x="384.52045"
         y="544.14447"
         id="_2TP-4">2ТП =</tspan><tspan
         sodipodi:role="line"
         x="384.52045"
         y="559.14447"
         id="_Ku-2">Ку =</tspan><tspan
         sodipodi:role="line"
         x="384.52045"
         y="574.14447"
         id="_ControlTime-3">Время контроля:</tspan></text>
    <rect
       style="fill:#808080"
       id="_HandImage-2"
       width="237.21577"
       height="172.60561"
       x="64.172791"
       y="435.48859"
       inkscape:label="#rect3011" />
    <text
       xml:space="preserve"
       style="font-size:12px;font-style:normal;font-variant:normal;font-weight:normal;font-stretch:normal;text-align:start;line-height:125%;letter-spacing:0px;word-spacing:0px;writing-mode:lr-tb;text-anchor:start;fill:#000000;fill-opacity:1;stroke:none;font-family:Times New Roman;-inkscape-font-specification:'Times New Roman,'"
       x="383.49603"
       y="620.41815"
       id="_HandCtrlResultText-2"
       sodipodi:linespacing="125%"
       inkscape:label="#text3003"
       transform="scale(0.97537795,1.0252436)"><tspan
         sodipodi:role="line"
         id="_Angle-16"
         x="383.49603"
         y="620.41815">Угол ввода:</tspan><tspan
         sodipodi:role="line"
         x="383.49603"
         y="635.41815"
         id="_Method-8">Метод:</tspan><tspan
         sodipodi:role="line"
         x="383.49603"
         y="650.41815"
         id="_Surface-57">Поверхность:</tspan><tspan
         sodipodi:role="line"
         x="383.49603"
         y="665.41815"
         id="_JointDistance-6">Расстояние от стыка:</tspan><tspan
         sodipodi:role="line"
         x="383.49603"
         y="680.41815"
         id="_Kd-1">Кд =</tspan><tspan
         sodipodi:role="line"
         x="383.49603"
         y="695.41815"
         id="_H-89">Н =</tspan><tspan
         sodipodi:role="line"
         x="383.49603"
         y="710.41815"
         id="_VRC-2">ВРЧ =</tspan><tspan
         sodipodi:role="line"
         x="383.49603"
         y="725.41815"
         id="_2TP-7">2ТП =</tspan><tspan
         sodipodi:role="line"
         x="383.49603"
         y="740.41815"
         id="_Ku-9">Ку =</tspan><tspan
         sodipodi:role="line"
         x="383.49603"
         y="755.41815"
         id="_ControlTime-54">Время контроля:</tspan></text>
    <rect
       style="fill:#808080"
       id="_HandImage-3"
       width="237.21577"
       height="172.60561"
       x="63.173599"
       y="621.33832"
       inkscape:label="#rect3011" />
    <text
       xml:space="preserve"
       style="font-size:12px;font-style:normal;font-variant:normal;font-weight:normal;font-stretch:normal;text-align:start;line-height:125%;letter-spacing:0px;word-spacing:0px;writing-mode:lr-tb;text-anchor:start;fill:#000000;fill-opacity:1;stroke:none;font-family:Arial;-inkscape-font-specification:Arial"
       x="508.00595"
       y="817.66016"
       id="text3060-1"
       sodipodi:linespacing="125%"><tspan
         sodipodi:role="line"
         id="tspan3062-2"
         x="508.00595"
         y="817.66016">стр.</tspan></text>
  </g>
</svg>
